%YAML 1.1
%TAG !u! tag:unity3d.com,2011:
--- !u!1045 &1
EditorBuildSettings:
  m_ObjectHideFlags: 0
  serializedVersion: 2
  m_Scenes:
  - enabled: 1
    path: Assets/Levels/Menu.unity
    guid: cea156835a934ec4ca400b15b0677a67
  - enabled: 1
    path: Assets/Levels/lvl1.unity
    guid: 8390c3de4fc8f554bafa20be8b371195
  - enabled: 1
    path: Assets/Levels/lvl2.unity
    guid: 83df8320c22615248a9e87d0507ba84f
  m_configObjects: {}
